Seurat Clustering
…
##                p_val avg_log2FC pct.1 pct.2     p_val_adj
## Sox11  4.772390e-122   1.843740 0.992 0.698 1.008406e-117
## Stmn2  9.437856e-121   9.260640 0.975 0.689 1.994219e-116
## Tuba1a 7.690118e-100 -26.946815 1.000 0.980  1.624922e-95
## Tmsb10  1.227615e-98 -15.762034 0.999 0.925  2.593951e-94
## Sp8     1.124153e-90 -14.186371 0.940 0.657  2.375336e-86
## Pfn2    3.479767e-90  -6.093696 0.876 0.578  7.352748e-86
## Tubb5   1.328849e-80 -26.549721 0.996 0.923  2.807858e-76
## Tubb3   2.628602e-76  22.044870 0.992 0.784  5.554236e-72
## Map1b   4.304704e-73 -13.891093 0.996 0.812  9.095839e-69
## Tiam2   1.915245e-72   2.063971 0.605 0.266  4.046913e-68

## # A tibble: 24 x 7
## # Groups:   cluster [12]
##        p_val avg_log2FC pct.1 pct.2 p_val_adj cluster gene       
##        <dbl>      <dbl> <dbl> <dbl>     <dbl> <fct>   <chr>      
##  1 5.38e-  4      5.31  0.777 0.729 1   e+  0 0       mt-Rnr2    
##  2 4.95e- 20      0.877 0.65  0.458 1.05e- 15 0       Mir124a-1hg
##  3 2.63e- 76     22.0   0.992 0.784 5.55e- 72 1       Tubb3      
##  4 3.88e- 57     10.0   0.841 0.562 8.20e- 53 1       Nfib       
##  5 5.91e- 65    119.    0.97  0.716 1.25e- 60 2       Meg3       
##  6 1.18e-  7     28.0   0.182 0.272 2.50e-  3 2       Serpine2   
##  7 1.59e-143    177.    0.996 0.837 3.36e-139 3       Ncan       
##  8 3.02e-201     74.2   0.396 0.011 6.38e-197 3       Gfap       
##  9 3.27e- 51     67.9   0.958 0.744 6.92e- 47 4       Nnat       
## 10 5.07e-  6     17.4   0.979 0.845 1.07e-  1 4       Map1b      
## # ... with 14 more rows
…
